<?xml version="1.0" encoding="UTF-8"?>
<!-- Created with Inkscape (http://www.inkscape.org/) -->
<svg width="66.716mm" height="11.599mm" version="1.1" viewBox="0 0 66.715803 11.59897" xmlns="http://www.w3.org/2000/svg" xmlns:cc="http://creativecommons.org/ns#" xmlns:dc="http://purl.org/dc/elements/1.1/" xmlns:rdf="http://www.w3.org/1999/02/22-rdf-syntax-ns#">
 <metadata>
  <rdf:RDF>
   <cc:Work rdf:about="">
    <dc:format>image/svg+xml</dc:format>
    <dc:type rdf:resource="http://purl.org/dc/dcmitype/StillImage"/>
    <dc:title/>
   </cc:Work>
  </rdf:RDF>
 </metadata>
 <g transform="translate(55.659 -143.03)">
  <g transform="matrix(0 .99997 -.99997 0 44.132 291.7)">
   <path d="m-142.87 33.076c-3.2032 0-5.7997 2.406-5.7997 5.3834 0 2.8681 2.4165 5.207 5.454 5.3693v55.965h1.023v-55.993c2.8857-0.31045 5.1223-2.5823 5.1223-5.3411 0-2.9774-2.6106-5.3834-5.7997-5.3834z" fill="#004a78" fill-rule="evenodd"/>
  </g>
 </g>
</svg>
